…
    nycflights_new_1 = nycflights13::flights %>% group_by(dest) %>% summarise(avg_delay = mean(arr_delay))
    nycflights_new_1

    ## # A tibble: 105 x 2
    ##    dest  avg_delay
    ##    <chr>     <dbl>
    ##  1 ABQ        4.38
    ##  2 ACK       NA   
    ##  3 ALB       NA   
    ##  4 ANC       -2.5 
    ##  5 ATL       NA   
    ##  6 AUS       NA   
    ##  7 AVL       NA   
    ##  8 BDL       NA   
    ##  9 BGR       NA   
    ## 10 BHM       NA   
    ## # … with 95 more rows
…
**Claim is not correct since there are multiple planes that have a count
of more than 1**

#### 3. Plane's average speed.

Notice that `flights$air_time` is in minutes. Make a new column that is
the air time in hours.

    nycflights_new = nycflights13::flights %>% mutate(air_time_hours = air_time/60)
    nycflights_new

    ## # A tibble: 336,776 x 20
    ##     year month   day dep_time sched_dep_time dep_delay arr_time sched_arr_time
    ##    <int> <int> <int>    <int>          <int>     <dbl>    <int>          <int>
    ##  1  2013     1     1      517            515         2      830            819
    ##  2  2013     1     1      533            529         4      850            830
    ##  3  2013     1     1      542            540         2      923            850
    ##  4  2013     1     1      544            545        -1     1004           1022
    ##  5  2013     1     1      554            600        -6      812            837
    ##  6  2013     1     1      554            558        -4      740            728
    ##  7  2013     1     1      555            600        -5      913            854
    ##  8  2013     1     1      557            600        -3      709            723
    ##  9  2013     1     1      557            600        -3      838            846
    ## 10  2013     1     1      558            600        -2      753            745
    ## # … with 336,766 more rows, and 12 more variables: arr_delay <dbl>,
    ## #   carrier <chr>, flight <int>, tailnum <chr>, origin <chr>, dest <chr>,
    ## #   air_time <dbl>, distance <dbl>, hour <dbl>, minute <dbl>, time_hour <dttm>,
    ## #   air_time_hours <dbl>

#### 4. Average speed

For each flight, compute the average speed of that flight (in miles per
hour). Then, for each plane, compute the average of those average
speeds. Display it in a histogram. You can use a base R histogram `hist`
or ggplot's `geom_histogram`.

    nycflights_new_2 = nycflights_new %>% mutate(avg_speed = distance/air_time_hours)
    nycflights_new_2

    ## # A tibble: 336,776 x 21
    ##     year month   day dep_time sched_dep_time dep_delay arr_time sched_arr_time
    ##    <int> <int> <int>    <int>          <int>     <dbl>    <int>          <int>
    ##  1  2013     1     1      517            515         2      830            819
    ##  2  2013     1     1      533            529         4      850            830
    ##  3  2013     1     1      542            540         2      923            850
    ##  4  2013     1     1      544            545        -1     1004           1022
    ##  5  2013     1     1      554            600        -6      812            837
    ##  6  2013     1     1      554            558        -4      740            728
    ##  7  2013     1     1      555            600        -5      913            854
    ##  8  2013     1     1      557            600        -3      709            723
    ##  9  2013     1     1      557            600        -3      838            846
    ## 10  2013     1     1      558            600        -2      753            745
    ## # … with 336,766 more rows, and 13 more variables: arr_delay <dbl>,
    ## #   carrier <chr>, flight <int>, tailnum <chr>, origin <chr>, dest <chr>,
    ## #   air_time <dbl>, distance <dbl>, hour <dbl>, minute <dbl>, time_hour <dttm>,
    ## #   air_time_hours <dbl>, avg_speed <dbl>

    nycflights_new_3 = nycflights_new_2 %>% group_by(tailnum) %>% summarise(avg_avg_speed_plane = mean(avg_speed, na.rm = T))
    nycflights_new_3

    ## # A tibble: 4,044 x 2
    ##    tailnum avg_avg_speed_plane
    ##    <chr>                 <dbl>
    ##  1 D942DN                 381.
    ##  2 N0EGMQ                 391.
    ##  3 N10156                 385.
    ##  4 N102UW                 394.
    ##  5 N103US                 388.
    ##  6 N104UW                 400.
    ##  7 N10575                 356.
    ##  8 N105UW                 383.
    ##  9 N107US                 391.
    ## 10 N108UW                 399.
    ## # … with 4,034 more rows
…
